<?xml version="1.0" encoding="utf-8"?>
<svg width="65px" height="65px" viewBox="0 0 65 65" version="1.1" xmlns:xlink="http://www.w3.org/1999/xlink" xmlns="http://www.w3.org/2000/svg">
    <desc>Created with Lunacy</desc>
    <g id="Icon" transform="translate(0.5 0.5)">
        <path d="M32 64C49.6731 64 64 49.6731 64 32C64 14.3269 49.6731 0 32 0C14.3269 0 0 14.3269 0 32C0 49.6731 14.3269 64 32 64Z" id="Oval" fill="#3FC3DA" fill-opacity="0.204362" stroke="none" />
        <g id="pen" transform="translate(16 16)">
            <path d="M2.56519 21.7055L24.2707 0L31.9662 7.69558L10.2712 29.4011L0 31.9662L2.56519 21.7055ZM4.96422 22.2351L9.73112 27.002L29.0376 7.69558L24.2707 2.92868L4.96422 22.2351ZM2.8456 29.1206L4.11262 24.3122L7.65404 27.9056L2.8456 29.1206Z" id="Shape" fill="#3FC3DA" fill-rule="evenodd" stroke="none" />
        </g>
    </g>
</svg>