<?xml version="1.0" encoding="UTF-8"?>
<svg width="114px" height="118px" viewBox="0 0 114 118" version="1.1" xmlns="http://www.w3.org/2000/svg" xmlns:xlink="http://www.w3.org/1999/xlink">
    <title>Triangle</title>
    <defs>
        <polygon id="path-1" points="820.901018 690 852.901018 740.974532 788.901018 740.974532"></polygon>
        <filter x="-75.0%" y="-94.2%" width="250.0%" height="288.3%" filterUnits="objectBoundingBox" id="filter-2">
            <feOffset dx="0" dy="0" in="SourceAlpha" result="shadowOffsetOuter1"></feOffset>
            <feGaussianBlur stdDeviation="16" in="shadowOffsetOuter1" result="shadowBlurOuter1"></feGaussianBlur>
            <feColorMatrix values="0 0 0 0 0   0 0 0 0 0   0 0 0 0 0  0 0 0 0.1 0" type="matrix" in="shadowBlurOuter1"></feColorMatrix>
        </filter>
    </defs>
    <g id="Page-1" stroke="none" stroke-width="1" fill="none" fill-rule="evenodd">
        <g id="Jeugdzorg-Almelo" transform="translate(-759.000000, -662.000000)">
            <g id="Triangle" transform="translate(820.901018, 715.487266) rotate(-285.000000) translate(-820.901018, -715.487266) ">
                <use fill="black" fill-opacity="1" filter="url(#filter-2)" xlink:href="#path-1"></use>
                <use fill="#3FC3DA" fill-rule="evenodd" xlink:href="#path-1"></use>
            </g>
        </g>
    </g>
</svg>