<?xml version="1.0" standalone="no"?>
<!DOCTYPE svg PUBLIC "-//W3C//DTD SVG 20010904//EN"
 "http://www.w3.org/TR/2001/REC-SVG-20010904/DTD/svg10.dtd">
<svg version="1.0" xmlns="http://www.w3.org/2000/svg"
 width="525.000000pt" height="433.000000pt" viewBox="0 0 525.000000 433.000000"
 preserveAspectRatio="xMidYMid meet">
<metadata>
Created by potrace 1.16, written by Peter Selinger 2001-2019
</metadata>
<g transform="translate(0.000000,433.000000) scale(0.100000,-0.100000)"
fill="#000000" stroke="none">
<path d="M2943 3129 c-19 -6 -34 -18 -39 -32 -3 -12 -16 -35 -29 -52 -12 -16
-25 -40 -29 -52 -11 -35 4 -110 29 -147 l22 -33 -24 -49 c-24 -50 -12 -40 19
15 14 25 24 31 50 31 46 0 134 64 160 115 5 11 -1 7 -14 -9 -36 -43 -58 -32
-83 40 -11 33 -31 74 -43 91 -12 17 -22 36 -22 42 0 18 51 33 87 26 34 -6 82
-55 84 -83 0 -11 2 -12 6 -5 9 24 -36 80 -77 97 -45 18 -51 18 -97 5z"/>
<path d="M2505 2999 c-21 -10 -42 -16 -48 -12 -6 3 -7 1 -3 -5 4 -6 0 -25 -9
-41 -29 -57 -13 -133 43 -198 28 -32 84 -63 115 -63 24 0 32 -8 25 -26 -2 -4
-23 -8 -48 -8 -157 -5 -150 -4 -149 -33 0 -27 1 -27 9 -5 9 20 16 22 88 22
l78 0 40 -127 c26 -87 40 -119 42 -101 2 15 -11 73 -28 129 -29 94 -31 104
-15 115 12 9 13 13 3 17 -11 4 -11 8 0 23 7 11 21 32 31 48 38 57 34 184 -7
229 -42 47 -113 62 -167 36z"/>
<path d="M1338 2868 c-1 -35 -2 -74 -3 -88 -1 -14 -2 -51 -3 -82 l-2 -57 -52
-4 -53 -3 53 -2 c51 -2 52 -2 52 -33 0 -30 2 -31 35 -27 24 3 35 0 35 -9 0 -9
-17 -13 -55 -13 -42 0 -55 -3 -55 -15 0 -11 12 -15 50 -15 l50 0 0 -45 0 -45
-50 0 c-41 0 -50 -3 -49 -17 0 -11 3 -13 6 -5 6 14 39 16 48 2 3 -5 19 -10 36
-10 l29 0 0 88 0 87 60 23 c33 13 60 28 60 33 0 5 4 9 9 9 5 0 4 -16 -2 -36
-9 -31 -8 -37 6 -45 9 -6 17 -21 17 -34 0 -19 4 -22 21 -18 15 4 20 12 17 28
-4 19 1 24 41 33 25 6 54 14 64 17 14 6 17 1 17 -33 0 -32 -5 -44 -27 -61 -20
-14 -23 -20 -12 -21 20 0 35 -37 44 -102 l6 -48 -60 0 -59 0 -9 52 c-6 38 -13
54 -26 56 -14 3 -17 -5 -17 -52 l0 -56 -65 0 c-37 0 -65 -4 -65 -10 0 -10 108
-14 133 -5 10 5 13 18 9 55 -6 66 13 66 22 0 4 -27 10 -52 15 -55 5 -2 41 -7
81 -10 68 -4 72 -3 67 15 -6 25 4 25 28 3 31 -30 195 -7 195 26 0 5 -17 0 -37
-11 -30 -15 -50 -18 -97 -14 -32 3 -65 11 -74 18 -19 17 -44 76 -37 88 3 5 1
18 -4 29 -8 14 -6 27 5 50 11 22 14 44 9 70 -5 33 -4 40 13 45 11 4 26 14 35
24 15 16 13 20 -14 51 -43 49 -38 81 16 107 30 14 36 14 65 -1 29 -15 33 -15
56 0 l25 16 -28 49 c-15 28 -32 50 -36 50 -5 0 -6 -4 -3 -9 3 -5 -3 -11 -14
-14 -10 -3 -21 0 -22 5 -2 6 -20 12 -40 14 -34 3 -37 1 -52 -39 -9 -24 -16
-46 -16 -49 0 -4 -5 -19 -10 -33 -9 -23 -13 -25 -25 -15 -13 11 -14 10 -10 -3
4 -10 -1 -18 -16 -22 -16 -6 -18 -9 -8 -16 7 -4 10 -12 5 -16 -5 -4 -11 -2
-14 6 -2 7 -13 21 -23 29 -11 9 -19 25 -19 35 0 9 -8 34 -17 55 -9 20 -20 46
-24 57 -5 16 -7 13 -8 -12 -1 -18 4 -33 9 -33 16 0 12 -27 -5 -34 -10 -3 -15
-19 -15 -43 l0 -37 -47 45 c-27 25 -57 52 -68 59 -20 14 -20 14 -2 -7 11 -12
16 -27 12 -32 -3 -6 2 -11 13 -11 11 0 30 -9 43 -20 l24 -19 -30 -1 c-39 0
-111 22 -127 39 -11 11 -8 12 15 7 35 -8 35 8 -2 44 -19 20 -27 37 -26 54 2
14 -1 28 -6 32 -5 3 -10 -23 -11 -58z"/>
<path d="M3845 2649 l-40 -6 45 -2 c95 -3 141 -28 155 -83 7 -27 5 -28 -29
-28 -25 0 -36 -4 -36 -15 0 -10 11 -15 35 -15 l35 0 0 -85 0 -84 -37 -8 c-69
-15 -176 -10 -206 10 -35 23 -59 60 -68 105 -6 35 -7 36 -8 7 -3 -74 74 -145
158 -145 l44 0 -6 -47 -6 -48 16 43 15 42 72 0 73 0 34 -112 c22 -74 35 -105
37 -88 6 39 -49 212 -68 217 -15 4 -18 23 -22 126 -6 143 -19 180 -76 204 -44
18 -64 20 -117 12z"/>
<path d="M3437 2642 c-12 -2 -17 -13 -17 -34 0 -24 3 -28 13 -19 11 8 17 3 30
-24 9 -19 14 -41 11 -49 -7 -17 61 -66 91 -66 12 0 29 6 40 13 27 20 13 59
-43 117 l-48 50 42 0 41 0 18 -62 c9 -35 30 -101 46 -148 16 -47 29 -88 29
-93 0 -4 -28 -7 -62 -5 -57 3 -63 5 -66 26 -3 21 -8 23 -50 20 -40 -3 -47 -6
-50 -25 -3 -21 -8 -23 -65 -22 -34 0 -56 3 -49 6 8 3 4 11 -13 25 l-26 20 -25
-23 c-23 -22 -36 -24 -135 -27 l-108 -4 -4 159 -3 158 -3 -170 c-2 -104 -6
-160 -11 -145 -4 14 -8 19 -9 13 -1 -9 -20 -13 -60 -13 l-59 0 -9 52 c-6 38
-13 54 -26 56 -15 3 -17 -4 -15 -50 1 -50 2 -51 5 -10 6 57 18 53 29 -10 l9
-53 105 -10 c104 -10 105 -10 108 -37 3 -27 1 -28 -37 -28 -23 0 -41 -4 -41
-10 0 -5 16 -10 35 -10 32 0 35 -2 35 -30 0 -28 -3 -30 -35 -30 -19 0 -35 -4
-35 -10 0 -5 16 -10 35 -10 19 0 35 -4 35 -9 0 -5 3 -18 6 -28 3 -12 1 -10 -8
5 l-14 23 -24 -26 -24 -25 -23 22 c-18 17 -23 18 -23 6 0 -19 -27 -31 -36 -17
-3 5 0 16 6 24 10 12 8 15 -11 15 -22 0 -24 3 -23 52 l2 53 -7 -50 c-4 -37
-11 -51 -24 -53 -27 -5 -46 16 -58 64 -6 23 -17 45 -25 48 -11 4 -14 -7 -13
-52 1 -47 3 -52 9 -27 7 28 15 17 10 -15 -1 -8 1 -12 5 -8 7 6 55 -43 55 -56
0 -3 -9 -6 -20 -6 -13 0 -20 7 -20 20 0 27 -26 26 -33 -1 -5 -18 -12 -21 -51
-17 -25 2 -46 0 -46 -4 0 -5 18 -8 39 -8 l39 0 -14 -52 c-7 -29 -11 -63 -7
-76 5 -21 10 -23 38 -19 45 7 136 48 130 58 -3 4 6 6 20 3 19 -3 25 0 25 13 0
12 3 14 8 7 18 -30 197 -49 226 -25 23 19 20 5 -4 -19 -31 -31 -25 -48 23 -62
56 -16 232 -17 249 0 9 9 8 12 -5 12 -10 0 -17 8 -17 19 0 11 -4 22 -9 26 -10
6 -11 45 -1 45 3 0 11 -5 18 -12 9 -9 12 -9 12 0 0 8 24 12 80 12 73 0 80 2
80 20 0 28 66 29 75 1 7 -22 68 -48 73 -31 2 6 37 10 83 10 72 0 79 2 79 20 0
28 66 29 75 1 9 -30 115 -58 115 -31 0 6 32 10 75 10 l75 0 1 43 0 42 22 -42
c20 -42 23 -43 68 -43 26 0 51 -4 54 -10 6 -10 65 -14 65 -5 0 3 -20 41 -45
84 -25 43 -45 83 -45 88 0 6 18 42 40 79 22 38 40 72 40 77 0 16 -164 -4 -177
-21 -12 -14 -13 -14 -13 1 0 9 -4 17 -10 17 -6 0 -10 -27 -10 -62 l0 -63 27
58 26 57 58 0 c33 0 59 -2 59 -4 0 -2 -16 -32 -35 -66 -19 -34 -35 -64 -35
-67 0 -2 18 -35 40 -72 22 -37 40 -70 40 -74 0 -4 -26 -7 -58 -7 l-58 0 -30
62 -29 61 -5 -59 -5 -59 -52 -3 -53 -3 -2 148 -2 148 -3 -125 c-4 -175 -2
-170 -68 -170 -50 0 -55 2 -61 25 -5 21 -12 25 -43 25 -31 0 -40 -5 -49 -25
-11 -24 -15 -25 -112 -25 -98 0 -100 0 -106 25 -5 21 -12 25 -43 25 -31 0 -40
-5 -49 -25 -10 -22 -18 -25 -60 -25 l-49 0 4 155 5 155 -26 0 c-19 0 -26 5
-26 20 0 17 7 20 40 20 34 0 40 -3 40 -20 0 -11 7 -23 16 -27 13 -5 15 -16 11
-52 l-6 -46 16 43 15 42 72 0 73 0 34 -112 c28 -92 34 -107 36 -78 2 19 -10
73 -25 120 -22 66 -33 86 -49 88 -23 3 -73 93 -73 131 0 13 -9 55 -21 93 -11
39 -18 72 -15 75 2 3 -3 13 -12 23 -14 15 -31 18 -92 17 -42 -1 -84 -3 -93 -5z
m-171 -331 c-4 -5 -2 -11 4 -13 6 -2 16 -36 24 -76 8 -40 17 -76 21 -80 8 -7
1 49 -10 83 -5 15 -2 13 8 -4 14 -24 14 -23 21 23 l7 46 80 0 79 0 0 -144 0
-144 -41 -4 c-22 -2 -43 0 -46 5 -9 15 -22 -17 -17 -40 5 -18 -1 -25 -40 -44
-37 -17 -49 -19 -61 -9 -23 19 -18 38 13 42 28 3 30 13 20 81 -5 31 -23 13
-22 -23 l0 -35 -40 4 c-40 4 -40 4 -13 13 15 5 27 14 27 19 0 5 0 12 0 17 0 4
-8 7 -17 7 -32 0 -43 14 -32 38 7 15 7 40 1 72 l-10 50 -1 -53 c-1 -36 -5 -51
-12 -46 -15 9 -30 -16 -23 -37 3 -13 -1 -17 -21 -15 -25 1 -36 16 -12 16 6 1
-1 12 -18 25 -16 14 -24 25 -17 25 6 0 12 7 12 16 0 8 -4 13 -8 10 -5 -3 -8 8
-7 24 1 17 2 57 3 90 l2 59 73 4 c39 1 73 4 75 5 2 1 1 -2 -2 -7z"/>
<path d="M3182 2630 c86 -8 120 -25 143 -70 19 -36 22 -108 6 -137 -8 -17 -7
-26 10 -47 23 -29 45 -33 76 -11 21 15 21 15 -18 54 -21 21 -39 46 -39 55 0
25 18 19 35 -13 8 -16 26 -38 41 -50 l26 -20 41 21 42 21 -27 11 c-14 6 -36
20 -48 31 -18 16 -24 17 -42 6 -30 -19 -44 0 -28 39 16 38 8 49 -10 15 -15
-28 -30 -33 -30 -9 0 30 -35 76 -72 95 -28 14 -56 19 -110 18 l-73 -2 77 -7z"/>
<path d="M1142 2598 c-5 -18 -24 -88 -42 -155 l-34 -123 -78 0 c-72 0 -79 2
-88 23 -5 13 -9 16 -9 6 -1 -8 5 -23 12 -33 10 -14 26 -16 91 -14 l79 3 12 43
c7 23 18 48 23 55 11 13 26 72 39 152 7 41 9 22 13 -100 l5 -150 123 -5 c94
-4 122 -2 122 8 0 9 -31 12 -120 12 l-120 0 0 155 c0 152 -9 192 -28 123z"/>
<path d="M2710 2480 l-5 -155 -65 0 c-60 0 -65 2 -68 23 -3 21 -8 23 -50 20
-40 -3 -47 -6 -50 -25 -3 -22 -7 -23 -118 -23 -113 0 -114 0 -120 25 -6 23
-11 26 -50 24 -37 -2 -46 -7 -50 -26 -6 -21 -12 -23 -70 -23 -36 0 -64 -4 -64
-10 0 -11 12 -13 84 -10 31 1 52 -3 58 -12 7 -9 8 -2 4 20 -4 20 -2 31 4 27 6
-3 10 -1 10 4 0 6 11 11 25 11 14 0 25 -4 25 -8 0 -5 9 -18 21 -31 15 -16 28
-21 47 -16 l27 6 -6 -108 c-3 -60 -3 -115 0 -123 5 -12 17 -14 56 -9 l50 6
-47 1 -48 2 0 109 0 109 53 6 c28 3 66 6 82 8 22 2 31 9 33 26 3 18 10 22 43
22 35 0 39 -3 39 -25 0 -22 -5 -25 -32 -25 -25 0 -29 -3 -18 -10 8 -5 24 -35
37 -67 l22 -58 0 63 1 62 35 0 36 0 -3 -107 -3 -108 -49 0 -49 0 -21 55 -21
55 -3 -59 -3 -58 -35 4 c-18 2 -34 0 -34 -4 0 -4 18 -8 40 -8 39 0 40 1 41 38
l1 37 12 -35 c12 -32 16 -35 59 -38 26 -2 47 -7 47 -13 0 -5 9 -9 20 -9 19 0
20 7 20 123 0 109 2 123 19 134 13 8 30 9 53 3 18 -4 55 -11 82 -15 31 -4 57
-15 72 -30 23 -23 24 -23 24 -4 0 12 -12 25 -35 36 -19 9 -35 20 -35 25 0 4
-27 8 -60 8 l-59 0 -3 158 -3 157 -5 -155z"/>
<path d="M2204 2195 c-4 -8 -10 -12 -16 -9 -23 14 -118 -74 -118 -110 0 -18
38 -41 60 -38 40 7 91 36 85 50 -3 8 8 31 25 52 18 23 28 44 24 54 -8 20 -53
21 -60 1z"/>
</g>
</svg>
