<?xml version="1.0" encoding="UTF-8"?>
<svg width="52px" height="12px" viewBox="0 0 52 12" version="1.1" xmlns="http://www.w3.org/2000/svg" xmlns:xlink="http://www.w3.org/1999/xlink">
    <title>Group 21 Copy</title>
    <g id="Page-1" stroke="none" stroke-width="1" fill="none" fill-rule="evenodd">
        <g id="Jeugdzorg-Almelo" transform="translate(-774.000000, -970.000000)">
            <g id="Group-7" transform="translate(240.000000, 970.000000)">
                <g id="Group-9" transform="translate(192.000000, 0.000000)">
                    <g id="Group-21-Copy" transform="translate(342.000000, 0.000000)">
                        <g id="Group-8">
                            <rect id="Rectangle" fill="#FDB917" transform="translate(6.000000, 6.000000) rotate(-270.000000) translate(-6.000000, -6.000000) " x="0" y="0" width="12" height="12"></rect>
                            <polygon id="Triangle" fill="#3FC3DA" points="46 0 52 12 40 12"></polygon>
                            <circle id="Oval" fill="#964097" cx="26" cy="6" r="6"></circle>
                        </g>
                    </g>
                </g>
            </g>
        </g>
    </g>
</svg>