<?xml version="1.0" encoding="utf-8"?>
<svg width="1121px" height="452px" viewBox="0 0 1121 452" version="1.1" xmlns:xlink="http://www.w3.org/1999/xlink" xmlns="http://www.w3.org/2000/svg">
  <desc>Created with Lunacy</desc>
  <defs>
    <path d="M80.9027 1.96971C39.8069 -0.214532 13.0352 -1.63745 0 3.59018L0 446.68C0 446.68 146.654 446.66 280 446.68C294.968 446.13 308.352 445.616 320.543 445.148C412.152 441.627 436.443 440.694 560 446.68C685.684 446.66 700 446.66 840 446.68C925.843 442.281 991.912 445.793 1039.1 448.301C1080.19 450.485 1106.96 451.908 1120 446.68L1120 3.59018C1120 3.59018 973.346 3.61028 840 3.59018C825.032 4.14008 811.648 4.65438 799.457 5.12287C707.848 8.6432 683.557 9.57667 560 3.59018C434.316 3.61028 420 3.61028 280 3.59018C194.157 7.9892 128.088 4.47762 80.9027 1.96971Z" transform="translate(0.5 0.5)" id="path_1" />
    <clipPath id="mask_1">
      <use xlink:href="#path_1" />
    </clipPath>
  </defs>
  <path d="M80.9027 1.96971C39.8069 -0.214532 13.0352 -1.63745 0 3.59018L0 446.68C0 446.68 146.654 446.66 280 446.68C294.968 446.13 308.352 445.616 320.543 445.148C412.152 441.627 436.443 440.694 560 446.68C685.684 446.66 700 446.66 840 446.68C925.843 442.281 991.912 445.793 1039.1 448.301C1080.19 450.485 1106.96 451.908 1120 446.68L1120 3.59018C1120 3.59018 973.346 3.61028 840 3.59018C825.032 4.14008 811.648 4.65438 799.457 5.12287C707.848 8.6432 683.557 9.57667 560 3.59018C434.316 3.61028 420 3.61028 280 3.59018C194.157 7.9892 128.088 4.47762 80.9027 1.96971Z" transform="translate(0.5 0.5)" id="Combined-Shape" fill="#FFD266" fill-rule="evenodd" stroke="none" />
</svg>