<?xml version="1.0" encoding="UTF-8"?>
<svg width="259px" height="70px" viewBox="0 0 259 70" version="1.1" xmlns="http://www.w3.org/2000/svg" xmlns:xlink="http://www.w3.org/1999/xlink">
    <title>Group 2</title>
    <g id="Page-1" stroke="none" stroke-width="1" fill="none" fill-rule="evenodd">
        <g id="Jeugdzorg-Almelo" transform="translate(-240.000000, -5560.000000)" fill="#FFFFFF" fill-rule="nonzero">
            <g id="Group-10" transform="translate(0.000000, 5326.000000)">
                <g id="Group-2" transform="translate(240.000000, 234.177215)">
                    <path d="M13.8214286,14.6100189 C14.4470899,14.6100189 14.9874339,14.3984687 15.4424603,13.9753684 C15.8974868,13.5522681 16.125,13.0051556 16.125,12.334031 C16.125,11.6629064 15.9117063,11.1084991 15.485119,10.6708091 C15.0585317,10.2331192 14.5181878,10.0142742 13.8640873,10.0142742 C13.1815476,10.0142742 12.6198743,10.240414 12.1790675,10.6926936 C11.7382606,11.1449733 11.5178571,11.6920857 11.5178571,12.334031 C11.5178571,12.9759763 11.7382606,13.5157939 12.1790675,13.9534839 C12.6198743,14.3911739 13.167328,14.6100189 13.8214286,14.6100189 Z M6.60003524,54.8227848 C9.06273496,54.8227848 11.0000587,53.722895 12.4120066,51.5231153 C13.8239544,49.3233356 14.5627643,46.2177642 14.6284363,42.2064013 L14.6284363,42.2064013 L14.7269443,36.7231269 C14.8911243,29.6708919 14.9732143,24.3008415 14.9732143,20.6129755 C14.9732143,20.0953803 14.8747063,19.7314462 14.6776903,19.5211731 C14.4806743,19.3109001 14.1523144,19.2057635 13.6926104,19.2057635 C13.2000705,19.2057635 12.8470835,19.3109001 12.6336496,19.5211731 C12.4202156,19.7314462 12.3134986,20.0630306 12.3134986,20.5159264 C12.3134986,25.336032 12.1985726,32.5661902 11.9687206,42.2064013 C11.9030486,45.6031199 11.4022997,48.1830086 10.4664738,49.9460673 C9.53064791,51.709126 8.15974507,52.5906554 6.35376527,52.5906554 C4.05524554,52.5906554 2.77464168,51.0540446 2.51195371,47.980823 C2.44628172,47.0750313 2.00299577,46.6221355 1.18209586,46.6221355 C0.755227914,46.6221355 0.451494948,46.7434469 0.270896969,46.9860696 C0.0902989897,47.2286924 0,47.6411511 0,48.2234457 C0,50.1644278 0.632092928,51.7495632 1.89627878,52.9788518 C3.16046464,54.2081405 4.72838346,54.8227848 6.60003524,54.8227848 Z M33.470232,43.3334231 C36.2458468,43.3334231 38.3936439,42.8098949 39.9136234,41.7628385 C41.4336029,40.7157821 42.7222812,39.4233219 43.7796582,37.8854578 C44.0109595,37.5909732 44.1266101,37.3128488 44.1266101,37.0510847 C44.1266101,36.7238796 43.9861772,36.4375751 43.7053114,36.1921713 C43.4244456,35.9467675 43.1187976,35.8240655 42.7883672,35.8240655 C42.4248939,35.8240655 42.1605496,35.9385873 41.9953345,36.1676309 C41.1692586,37.2146873 40.4505727,38.0408802 39.8392766,38.6462097 C39.2279805,39.2515392 38.3936439,39.7914277 37.3362668,40.2658751 C36.2788898,40.7403225 34.97369,40.9775462 33.4206674,40.9775462 C31.3719994,40.9775462 29.5876756,40.5112789 28.0676961,39.5787443 C26.5477166,38.6462097 25.374689,37.4437309 24.5486131,35.9713078 C23.7225373,34.4988848 23.3094994,32.977381 23.3094994,31.4067964 L23.3094994,31.4067964 L43.03619,30.9159887 C43.8622658,30.8832682 44.3826936,30.7033054 44.5974733,30.3761002 C44.812253,30.0488951 44.9196429,29.4272054 44.9196429,28.511031 C44.9196429,26.5150798 44.4322581,24.7236317 43.4574887,23.1366869 C42.4827192,21.5497421 41.1196941,20.3063626 39.3684133,19.4065485 C37.6171326,18.5067344 35.6345506,18.0568274 33.4206674,18.0568274 C30.8763539,18.0568274 28.6376885,18.6376165 26.704671,19.7991946 C24.7716536,20.9607728 23.2929779,22.5231773 22.2686439,24.486408 C21.2443099,26.4496388 20.7321429,28.5601118 20.7321429,30.8178272 C20.7321429,33.0101015 21.2195276,35.0551335 22.1942971,36.9529232 C23.1690665,38.8507129 24.6146992,40.388577 26.5311951,41.5665154 C28.447691,42.7444539 30.7607033,43.3334231 33.470232,43.3334231 Z M24.1875,29.5461891 C24.1875,28.3546997 24.5901809,27.0355508 25.3955426,25.5887423 C26.2009043,24.1419337 27.3457813,22.9078912 28.8301735,21.8866146 C30.3145657,20.865338 32.0200376,20.3546997 33.9465892,20.3546997 C35.5888955,20.3546997 37.0732877,20.6951252 38.3997659,21.3759763 C39.726244,22.0568274 40.7605812,23.0100189 41.5027773,24.2355508 C42.2449734,25.4610827 42.6160714,26.8227848 42.6160714,28.3206572 C42.6160714,28.558955 42.5923843,28.7291678 42.5450101,28.8312954 C42.4976359,28.9334231 42.3949917,28.9844869 42.2370777,28.9844869 L42.2370777,28.9844869 L24.1875,29.5461891 Z M59.3112624,42.1844869 C61.1358734,42.1844869 62.7400106,41.7006647 64.123674,40.7330202 C65.5073373,39.7653758 66.5032709,38.4090872 67.1114745,36.6641546 L67.1114745,36.6641546 L67.1114745,38.1394158 C67.1418847,39.0277452 67.3623586,39.8684854 67.772896,40.6616366 C68.1834335,41.4547878 68.6471888,41.8513634 69.164162,41.8513634 C69.4074434,41.8513634 69.6507249,41.7244592 69.8940064,41.4706509 C70.1372878,41.2168425 70.2589286,40.9630341 70.2589286,40.7092257 C70.2589286,40.5823215 70.1600955,40.3443761 69.9624293,39.9953896 C69.7647631,39.6464031 69.5899045,39.273622 69.4378536,38.8770464 C69.2858027,38.4804708 69.2097772,37.9649225 69.2097772,37.3304016 L69.2097772,37.3304016 L69.0273161,19.2465542 C69.0273161,18.8658416 68.9132779,18.5723756 68.6852016,18.3661563 C68.4571252,18.159937 68.1454208,18.0568274 67.7500884,18.0568274 C66.9594236,18.0568274 66.5640912,18.453403 66.5640912,19.2465542 L66.5640912,19.2465542 L66.5640912,26.9083948 C66.5640912,30.7789726 66.0167079,33.9198514 64.9219413,36.3310311 C63.8271747,38.7422107 62.0177687,39.9478005 59.4937235,39.9478005 C57.6691124,39.9478005 56.3462694,39.257759 55.5251945,37.8776759 C54.7041195,36.4975928 54.293582,34.3481531 54.293582,31.4293566 L54.293582,31.4293566 L54.293582,19.3417323 C54.293582,19.0244718 54.1719413,18.778595 53.9286598,18.6041017 C53.6853784,18.4296084 53.3812765,18.3423618 53.0163543,18.3423618 C52.6818423,18.3423618 52.4005481,18.4296084 52.1724717,18.6041017 C51.9443953,18.778595 51.8303571,19.0244718 51.8303571,19.3417323 L51.8303571,19.3417323 L51.8303571,31.3341785 C51.8303571,38.5677175 54.3239922,42.1844869 59.3112624,42.1844869 Z M87.7503327,54.8227848 C90.0078009,54.8227848 91.98706,54.3366964 93.68811,53.3645197 C95.38916,52.3923429 96.7086661,51.023194 97.6466282,49.2570729 C98.5845904,47.4909517 99.0535714,45.457482 99.0535714,43.1566637 C99.0535714,42.47614 99.0058784,41.7308045 98.9104925,40.9206572 C98.8151065,40.1105099 98.6720275,39.1059272 98.4812555,37.9069092 C98.131507,35.4440614 97.9566327,34.2612463 97.9566327,34.358464 C97.1935448,28.8818683 96.6053313,24.8311318 96.191992,22.2062545 L96.191992,22.2062545 L96.6212289,20.6507717 L97.1935448,18.3175475 C97.2253401,18.1879239 97.2412378,18.0258945 97.2412378,17.8314591 C97.2094425,17.572212 97.042517,17.3534722 96.7404614,17.1752398 C96.4384058,16.9970074 96.1284014,16.9078912 95.8104481,16.9078912 C95.4289042,16.9078912 95.1109509,17.1347324 94.8565883,17.5884149 C94.7612023,17.7504444 94.5704303,18.3499534 94.2842724,19.3869419 L94.2842724,19.3869419 L93.9504215,20.5049452 C93.3145149,19.8568274 92.4083481,19.2816228 91.231921,18.7793315 C90.0554939,18.2770401 88.6882949,18.0258945 87.1303239,18.0258945 C84.8728557,18.0258945 82.9015454,18.6092005 81.2163931,19.7758126 C79.5312408,20.9424247 78.24353,22.4736031 77.3532609,24.3693478 C76.4629917,26.2650925 76.0178571,28.2661563 76.0178571,30.3725393 C76.0178571,32.4141105 76.4629917,34.3503626 77.3532609,36.1812954 C78.24353,38.0122283 79.5550873,39.4947979 81.2879326,40.6290041 C83.0207779,41.7632103 85.095423,42.3303135 87.5118678,42.3303135 C89.4513827,42.3303135 91.1444839,41.9495442 92.5911713,41.1880058 C94.0378586,40.4264673 95.1586439,39.3975802 95.9535271,38.1013445 C96.3032757,40.1753216 96.47815,41.860428 96.47815,43.1566637 C96.47815,45.9435704 95.7150621,48.1957799 94.1888864,49.9132922 C92.6627107,51.6308045 90.5165262,52.4895606 87.7503327,52.4895606 C85.9062038,52.4895606 84.3164374,51.9710663 82.9810337,50.9340778 C81.64563,49.8970892 80.8666445,48.5522447 80.6440772,46.8995442 C80.5486912,46.2838323 80.2148403,45.9759763 79.6425244,45.9759763 C78.8158459,45.9759763 78.4025067,46.3162382 78.4025067,46.9967619 C78.4025067,48.3902153 78.8317436,49.6864509 79.6902174,50.8854689 C80.5486912,52.0844869 81.693323,53.0404608 83.1241127,53.7533904 C84.5549024,54.46632 86.0969757,54.8227848 87.7503327,54.8227848 Z M87.3990617,39.8866146 C85.4143462,39.8866146 83.7387258,39.4642822 82.3722004,38.6196173 C81.0056749,37.7749525 79.988915,36.6615306 79.3219204,35.2793518 C78.6549258,33.8971729 78.3214286,32.4228488 78.3214286,30.8563794 C78.3214286,29.1670497 78.6955962,27.6082591 79.4439316,26.1800077 C80.1922669,24.7517562 81.2334292,23.615298 82.5674183,22.7706332 C83.9014074,21.9259683 85.4143462,21.5036359 87.1062349,21.5036359 C88.6029056,21.5036359 90.0101014,21.8261443 91.3278223,22.4711611 C92.6455433,23.1161779 93.4996217,23.8686975 93.8900575,24.7287199 L93.8900575,24.7287199 L94.3781023,27.6312954 C94.8986834,30.6413738 95.3053874,33.1292958 95.5982143,35.0950612 C95.0450969,36.5079552 93.9958005,37.6597709 92.4503254,38.5505084 C90.9048502,39.4412459 89.2210956,39.8866146 87.3990617,39.8866146 Z M117.830257,43.3334231 C119.784282,43.3334231 121.588603,42.906221 123.24322,42.0518168 C124.897838,41.1974127 126.134861,40.0608939 126.954291,38.6422605 C127.23794,40.7379689 128.025853,42.0759981 129.31803,42.6563481 C129.570163,42.7853148 129.790778,42.8497981 129.979877,42.8497981 C130.326559,42.8497981 130.633845,42.7047106 130.901736,42.4145356 C131.169626,42.1243606 131.303571,41.8180647 131.303571,41.4956481 C131.303571,41.2054731 131.256297,41.0603856 131.161747,41.0603856 C130.846582,40.9959022 130.539296,40.7540897 130.239889,40.3349481 C129.940482,39.9158064 129.68047,39.3354564 129.459855,38.593898 C129.243651,37.7407835 129.133388,34.9368805 129.129064,30.1821889 L129.129071,29.5804653 C129.13318,25.0485447 129.227683,19.9926054 129.41258,14.4126476 C129.601679,8.70587246 129.806537,4.57893905 130.027152,2.03184733 C130.058669,1.67718899 129.948361,1.38701399 129.696229,1.16132232 C129.444096,0.935630646 129.128931,0.82278481 128.750733,0.82278481 C128.372535,0.82278481 128.073128,0.927570229 127.852512,1.13714107 C127.631896,1.3467119 127.50583,1.64494733 127.474314,2.03184733 C127.064599,6.77137242 126.796708,13.4131559 126.670642,21.9571977 C125.914246,21.054431 124.78753,20.280631 123.290495,19.6357977 C121.79346,18.9909643 120.052172,18.6685476 118.066631,18.6685476 C114.379198,18.6685476 111.440282,19.7567039 109.249883,21.9330165 C107.059485,24.109329 105.964286,27.1158645 105.964286,30.9526229 C105.964286,33.7576479 106.515825,36.0871084 107.618903,37.9410043 C108.721982,39.7949001 110.171742,41.1571106 111.968184,42.0276356 C113.764626,42.8981606 115.71865,43.3334231 117.830257,43.3334231 Z M116.570313,41.0355508 C115.098586,41.0355508 113.634859,40.7028904 112.179129,40.0375697 C110.7234,39.372249 109.515625,38.3188246 108.555804,36.8772964 C107.595982,35.4357682 107.116071,33.5902953 107.116071,31.3408777 C107.116071,28.2677297 108.003906,25.8599024 109.779576,24.1173958 C111.555246,22.3748892 113.914807,21.5036359 116.858259,21.5036359 C118.297991,21.5036359 119.625744,21.7254094 120.841518,22.1689566 C122.057292,22.6125037 123.073103,23.1669376 123.888951,23.8322583 C124.704799,24.497579 125.256696,25.1470588 125.544643,25.7806975 L125.544643,25.7806975 L125.496652,30.2953737 C125.464658,31.1507861 125.448661,32.3230178 125.448661,33.8120689 C125.448661,35.1427103 125.02474,36.3624649 124.176897,37.4713327 C123.329055,38.5802006 122.217262,39.4514539 120.841518,40.0850926 C119.465774,40.7187314 118.042039,41.0355508 116.570313,41.0355508 Z M146.042683,43.3334231 C145.231127,43.3334231 144.825348,42.9162868 144.825348,42.0820143 C144.825348,38.039001 144.887776,32.8408412 145.012631,26.4875347 C144.638066,26.4554473 143.935758,26.4394036 142.905706,26.4394036 L142.905706,26.4394036 L140.845601,26.3912724 C140.127686,26.3912724 139.768728,26.0543547 139.768728,25.3805191 C139.768728,24.6104214 140.1589,24.2253725 140.939242,24.2253725 C142.780851,24.2253725 144.154254,24.2414162 145.059451,24.2735036 L145.059451,24.2735036 L145.106272,18.4015082 C145.106272,15.545729 144.809742,13.435982 144.216681,12.0722673 C143.623621,10.7085525 142.484321,10.0266951 140.79878,10.0266951 C139.425377,10.0266951 138.488966,10.4999844 137.989547,11.4465628 C137.490128,12.3931413 137.240418,13.652572 137.240418,15.224855 C137.240418,16.0270401 136.819033,16.4281327 135.976263,16.4281327 C135.539271,16.4281327 135.227134,16.3238486 135.039852,16.1152805 C134.85257,15.9067124 134.758929,15.5778164 134.758929,15.1285927 C134.758929,12.625775 135.305168,10.7647055 136.397648,9.54538401 C137.490128,8.32606256 138.988386,7.71640183 140.892422,7.71640183 C143.264663,7.71640183 144.981417,8.64693662 146.042683,10.5080062 C147.103949,12.3690758 147.634582,15.0002431 147.634582,18.4015082 C147.634582,19.1074312 147.603368,20.7438889 147.540941,23.3108814 L147.540941,23.3108814 L147.540941,24.3216347 L150.81838,24.4178969 C151.629936,24.4499844 152.035714,24.8189895 152.035714,25.5249125 C152.035714,26.2950102 151.629936,26.6800591 150.81838,26.6800591 L150.81838,26.6800591 L149.647866,26.631928 C149.148447,26.5998406 148.430531,26.5837969 147.49412,26.5837969 C147.369265,32.3916175 147.291231,37.5737336 147.260017,42.1301454 C147.260017,42.9323305 146.854239,43.3334231 146.042683,43.3334231 Z M165.857143,43.3334231 C169.603808,43.3334231 172.652081,42.2985657 175.001963,40.2288509 C177.351845,38.1591361 178.526786,35.1197518 178.526786,31.1106979 C178.526786,28.3728074 177.959856,26.0178957 176.825997,24.0459627 C175.692138,22.0740297 174.155677,20.5828572 172.216613,19.5724453 C170.27755,18.5620333 168.075563,18.0568274 165.610652,18.0568274 C163.014279,18.0568274 160.779426,18.6109242 158.906094,19.719118 C157.032761,20.8273117 155.611329,22.3755236 154.641798,24.3637536 C153.672266,26.3519835 153.1875,28.6335589 153.1875,31.2084797 C153.1875,35.478285 154.419956,38.5665603 156.884867,40.4733054 C159.349778,42.3800505 162.340536,43.3334231 165.857143,43.3334231 Z M162.272884,27.6801932 C161.872072,27.4937532 161.699769,27.0156038 161.888167,26.6125817 L163.191183,23.8251691 C163.379581,23.4221471 163.857527,23.2464636 164.25834,23.4329029 C164.659153,23.6193429 164.831456,24.0974923 164.643058,24.5005145 L163.340042,27.2879271 C163.151643,27.690949 162.673697,27.8666325 162.272884,27.6801932 Z M170.054245,31.2997242 C169.653059,31.1131107 169.48113,30.6351348 169.669527,30.2321127 L170.972543,27.4447001 C171.160942,27.0416781 171.638515,26.8658211 172.039701,27.0524339 C172.440514,27.2388739 172.612443,27.7168498 172.424045,28.119872 L171.121029,30.9072846 C170.932631,31.3103065 170.455058,31.4861635 170.054245,31.2997242 Z M162.907416,36.4555159 C161.381719,35.7458286 160.218246,34.4564467 159.542486,32.7267609 C159.379913,32.3113065 159.583644,31.8356721 159.996869,31.6644396 C160.410093,31.4932071 160.876909,31.6909032 161.039482,32.1063577 C162.101721,34.8251178 164.677184,36.0235682 167.448385,35.0874846 C167.871558,34.9444921 168.323442,35.1741331 168.45756,35.5999641 C168.592051,36.0259686 168.357374,36.4872081 167.934201,36.6302004 C166.171155,37.2254659 164.432743,37.1650247 162.907416,36.4555159 L162.907416,36.4555159 Z M166.384808,41.0355508 C163.748373,41.0355508 161.465605,40.2950042 159.536506,38.8139112 C157.607407,37.3328181 156.642857,34.9568979 156.642857,31.6861507 C156.642857,29.6496478 157.036715,27.8599936 157.82443,26.3171884 C158.612146,24.7743831 159.737454,23.586423 161.200354,22.7533082 C162.663254,21.9201933 164.359254,21.5036359 166.288353,21.5036359 C168.185301,21.5036359 169.889338,21.9201933 171.400466,22.7533082 C172.911594,23.586423 174.093167,24.766669 174.945186,26.2940463 C175.797205,27.8214235 176.223214,29.6033636 176.223214,31.6398666 C176.223214,33.7072257 175.773091,35.4505956 174.872845,36.8699765 C173.972599,38.2893574 172.782987,39.338465 171.304011,40.0172993 C169.825035,40.6961336 168.185301,41.0355508 166.384808,41.0355508 Z M165.463152,44.413969 C165.770122,44.4300566 166.005968,44.6912626 165.989916,44.9975444 L165.834527,47.9625443 C165.818476,48.2688261 165.556618,48.5039485 165.249649,48.487861 C164.942679,48.4717734 164.706833,48.2105674 164.722885,47.9042856 L164.878274,44.9392857 C164.894326,44.6330039 165.156183,44.3978814 165.463152,44.413969 Z M158.409956,42.1269994 C158.667739,42.2939989 158.74106,42.6378757 158.573712,42.8950535 L156.952999,45.3849476 C156.84066,45.5574128 156.648665,45.6470903 156.456566,45.6370229 C156.362313,45.6320833 156.267949,45.6031372 156.183093,45.5481017 C155.925309,45.3811022 155.851989,45.0372254 156.019337,44.7800476 L157.64005,42.2901535 C157.807398,42.0329757 158.152096,41.9600678 158.409956,42.1269994 Z M173.465467,43.1196003 L174.817036,45.7652651 C174.956589,46.0384551 174.847797,46.3727877 174.573894,46.5119946 C174.483681,46.5577832 174.386881,46.5767108 174.292556,46.5717675 C174.100457,46.5617 173.918884,46.4525165 173.825259,46.2692572 L172.47369,43.6235923 C172.334137,43.3504024 172.442929,43.0160698 172.716833,42.8768629 C172.990653,42.7378673 173.325849,42.8462633 173.465467,43.1196003 Z M153.447056,36.6289267 C153.586609,36.9021166 153.477817,37.2364493 153.203914,37.3756561 L150.552073,38.7232148 C150.461861,38.7690035 150.364988,38.7879273 150.270735,38.7829877 C150.078637,38.7729203 149.897063,38.6637368 149.803439,38.4804774 C149.663886,38.2072875 149.772678,37.8729549 150.046581,37.733748 L152.698422,36.3861893 C152.972242,36.2471936 153.307439,36.3555896 153.447056,36.6289267 Z M178.997163,37.764376 L181.493619,39.3817455 C181.751402,39.5487451 181.824723,39.8926218 181.657375,40.1497996 C181.545036,40.3222648 181.35304,40.4119423 181.160942,40.4018749 C181.066689,40.3969353 180.972325,40.3679892 180.887468,40.3129537 L178.391013,38.6955842 C178.13323,38.5285847 178.059909,38.1847079 178.227257,37.9275301 C178.394606,37.6703523 178.739304,37.5974444 178.997163,37.764376 Z M151.377517,28.8091205 C151.684486,28.8252081 151.920332,29.0864141 151.904281,29.3926959 C151.888229,29.6989777 151.6263,29.9340964 151.31933,29.9180088 L148.346977,29.7622344 C148.040007,29.7461468 147.804161,29.4849408 147.820213,29.178659 C147.836264,28.8723772 148.098122,28.6372547 148.405091,28.6533423 L151.377517,28.8091205 Z M184.075202,30.5227336 C184.382171,30.5388212 184.618017,30.8000272 184.601966,31.106309 C184.585914,31.4125908 184.324057,31.6477133 184.017087,31.6316257 L181.044662,31.4758474 C180.737692,31.4597598 180.501846,31.1985539 180.517898,30.8922721 C180.53395,30.5859903 180.795807,30.3508678 181.102776,30.3669554 L184.075202,30.5227336 Z M151.534786,19.9719464 L154.031241,21.5893159 C154.289025,21.7563154 154.362345,22.1001922 154.194997,22.35737 C154.082654,22.5299069 153.890663,22.6195127 153.698564,22.6094453 C153.604311,22.6045057 153.509947,22.5755595 153.425091,22.520524 L150.928635,20.9031546 C150.670852,20.736155 150.597531,20.3922783 150.76488,20.1351005 C150.932228,19.8779227 151.276926,19.8050148 151.534786,19.9719464 Z M182.618808,21.804566 C182.758361,22.0777559 182.649569,22.4120886 182.375665,22.5512954 L179.723825,23.8988542 C179.633612,23.9446428 179.53674,23.9635667 179.442486,23.9586271 C179.250388,23.9485596 179.068815,23.8393761 178.97519,23.6561168 C178.835637,23.3829268 178.944429,23.0485942 179.218333,22.9093873 L181.870173,21.5618286 C182.143993,21.4228329 182.47919,21.5312289 182.618808,21.804566 Z M158.596983,14.0158579 L159.948556,16.6614511 C160.088109,16.934641 159.979317,17.2689737 159.705414,17.4081805 C159.615205,17.4538975 159.518401,17.4728968 159.424076,17.4679534 C159.231977,17.457886 159.050404,17.3487024 158.95678,17.1654431 L157.605207,14.51985 C157.465654,14.24666 157.574446,13.9123274 157.848349,13.7731205 C158.122241,13.6341286 158.457366,13.7425209 158.596983,14.0158579 Z M176.239157,14.7368701 C176.496941,14.9038696 176.570262,15.2477464 176.402913,15.5049241 L174.782205,17.9947466 C174.669865,18.1672119 174.477798,18.2568856 174.285772,18.2468219 C174.191519,18.2418823 174.097155,18.2129362 174.012298,18.1579007 C173.754515,17.9909012 173.681194,17.6470244 173.848543,17.3898466 L175.469251,14.9000241 C175.6366,14.6428464 175.981298,14.5699385 176.239157,14.7368701 Z M167.17253,11.797107 C167.479499,11.8131946 167.715345,12.0744006 167.699294,12.3806824 L167.543905,15.3456823 C167.527857,15.6518924 167.265999,15.8870149 166.95903,15.8709273 C166.65206,15.8548397 166.416214,15.5936337 166.432266,15.2873519 L166.587651,12.3224237 C166.603703,12.0161419 166.86556,11.7810194 167.17253,11.797107 Z M187.352517,42.1844869 C188.170331,42.1844869 188.579238,41.8513634 188.579238,41.1851164 L188.579238,41.1851164 L188.532057,33.8563993 C188.532057,31.8893843 188.673602,30.1285887 188.956691,28.5740123 C189.931777,23.085406 192.275129,20.3411028 195.986747,20.3411028 C197.968373,20.3411028 199.352367,21.0628704 200.138726,22.5064056 C200.925086,23.9499408 201.318266,26.2104217 201.318266,29.2878484 L201.318266,29.2878484 L201.318266,40.899582 C201.318266,41.7244592 201.758627,42.1368979 202.63935,42.1368979 C203.457164,42.1368979 203.866071,41.7085962 203.866071,40.8519929 L203.866071,40.8519929 L203.866071,29.3354375 C203.866071,25.5283117 203.221256,22.6967619 201.931627,20.8407881 C200.641997,18.9848143 198.707552,18.0568274 196.128292,18.0568274 C193.926485,18.0568274 192.165039,18.6437593 190.843954,19.817623 C189.52287,20.9914868 188.594966,22.466748 188.060241,24.2434067 L188.060241,24.2434067 L188.060241,23.1488581 C188.060241,22.3874329 187.918696,21.6815284 187.635607,21.0311444 C187.352517,20.3807604 187.022246,19.7224449 186.644793,19.0561979 C186.298795,18.5803072 185.968524,18.3423618 185.65398,18.3423618 C185.370891,18.3423618 185.072074,18.4613345 184.75753,18.6992798 C184.442986,18.9372252 184.285714,19.1989651 184.285714,19.4844995 C184.285714,19.7065819 184.332896,19.8969382 184.427259,20.0555684 C184.553077,20.2459247 184.733939,20.5473221 184.969847,20.9597608 C185.205755,21.3721994 185.394481,21.7767065 185.536026,22.1732821 C185.677571,22.5698577 185.748343,23.101269 185.748343,23.767516 C185.748343,26.2421478 185.795525,28.8912728 185.889888,31.7148911 C185.952797,33.8405363 186.015706,36.9972781 186.078614,41.1851164 C186.078614,41.4706509 186.196568,41.7085962 186.432476,41.8989525 C186.668384,42.0893088 186.975065,42.1844869 187.352517,42.1844869 Z M221.490971,43.3334231 C223.444996,43.3334231 225.249317,42.906221 226.903935,42.0518168 C228.558552,41.1974127 229.795576,40.0608939 230.615005,38.6422605 C230.898654,40.7379689 231.686567,42.0759981 232.978745,42.6563481 C233.230877,42.7853148 233.451493,42.8497981 233.640592,42.8497981 C233.987273,42.8497981 234.29456,42.7047106 234.56245,42.4145356 C234.83034,42.1243606 234.964286,41.8180647 234.964286,41.4956481 C234.964286,41.2054731 234.917011,41.0603856 234.822461,41.0603856 C234.507296,40.9959022 234.20001,40.7540897 233.900603,40.3349481 C233.601196,39.9158064 233.341185,39.3354564 233.120569,38.593898 C232.899953,37.723373 232.789646,34.8216229 232.789646,29.8886479 C232.789646,25.2780894 232.884195,20.1194227 233.073294,14.4126476 C233.262393,8.70587246 233.467251,4.57893905 233.687866,2.03184733 C233.719383,1.67718899 233.609075,1.38701399 233.356943,1.16132232 C233.104811,0.935630646 232.789646,0.82278481 232.411447,0.82278481 C232.033249,0.82278481 231.733842,0.927570229 231.513226,1.13714107 C231.292611,1.3467119 231.166545,1.64494733 231.135028,2.03184733 C230.725313,6.77137242 230.457423,13.4131559 230.331357,21.9571977 C229.57496,21.054431 228.448244,20.280631 226.951209,19.6357977 C225.454174,18.9909643 223.712886,18.6685476 221.727345,18.6685476 C218.039912,18.6685476 215.100996,19.7567039 212.910598,21.9330165 C210.720199,24.109329 209.625,27.1158645 209.625,30.9526229 C209.625,33.7576479 210.176539,36.0871084 211.279618,37.9410043 C212.382696,39.7949001 213.832456,41.1571106 215.628898,42.0276356 C217.42534,42.8981606 219.379364,43.3334231 221.490971,43.3334231 Z M221.382813,41.0355508 C219.911086,41.0355508 218.447359,40.7028904 216.991629,40.0375697 C215.5359,39.372249 214.328125,38.3188246 213.368304,36.8772964 C212.408482,35.4357682 211.928571,33.5902953 211.928571,31.3408777 C211.928571,28.2677297 212.816406,25.8599024 214.592076,24.1173958 C216.367746,22.3748892 218.727307,21.5036359 221.670759,21.5036359 C223.110491,21.5036359 224.438244,21.7254094 225.654018,22.1689566 C226.869792,22.6125037 227.885603,23.1669376 228.701451,23.8322583 C229.517299,24.497579 230.069196,25.1470588 230.357143,25.7806975 L230.357143,25.7806975 L230.309152,30.2953737 C230.277158,31.1507861 230.261161,32.3230178 230.261161,33.8120689 C230.261161,35.1427103 229.83724,36.3624649 228.989397,37.4713327 C228.141555,38.5802006 227.029762,39.4514539 225.654018,40.0850926 C224.278274,40.7187314 222.854539,41.0355508 221.382813,41.0355508 Z M250.007692,43.3334231 C252.336788,43.3334231 254.251113,42.721243 255.750668,41.4968827 C257.250223,40.2725224 258,38.7098521 258,36.8088716 C258,35.5200713 257.64904,34.4487561 256.947121,33.5949259 C256.245202,32.7410957 255.391732,32.0644755 254.386711,31.5650654 C253.38169,31.0656553 252.033686,30.5098602 250.342699,29.8976801 C248.236941,29.1566199 246.665599,28.4397247 245.628673,27.7469946 C244.591747,27.0542644 244.073284,26.0957192 244.073284,24.8713589 C244.073284,23.8080987 244.472101,22.7931684 245.269737,21.8265682 C246.067372,20.859968 247.439306,20.3766679 249.385536,20.3766679 C251.012713,20.3766679 252.384646,20.779418 253.501336,21.5849182 C254.618025,22.3904183 255.208276,23.6631086 255.272086,25.402989 C255.272086,25.7251891 255.359826,25.9829492 255.535306,26.1762692 C255.710786,26.3695893 256.021864,26.4662493 256.46854,26.4662493 C256.915216,26.4662493 257.226294,26.3534792 257.401773,26.1279392 C257.577253,25.9023991 257.664993,25.5318691 257.664993,25.0163489 C257.664993,23.7275487 257.314033,22.5515184 256.612114,21.4882581 C255.910195,20.4249979 254.929103,19.5872777 253.668839,18.9750976 C252.408575,18.3629174 250.980807,18.0568274 249.385536,18.0568274 C247.726454,18.0568274 246.306663,18.3790274 245.126162,19.0234276 C243.945662,19.6678277 243.044334,20.5136029 242.422178,21.5607532 C241.800022,22.6079034 241.488944,23.7275487 241.488944,24.9196889 C241.488944,26.2729292 241.855857,27.3925745 242.589681,28.2786247 C243.323506,29.1646749 244.208882,29.86546 245.245808,30.3809802 C246.282734,30.8965003 247.630738,31.4442404 249.28982,32.0242005 C250.693658,32.5075006 251.794396,32.9344157 252.592031,33.3049458 C253.389667,33.6754759 254.05968,34.142666 254.602073,34.7065161 C255.144465,35.2703663 255.415661,35.9711514 255.415661,36.8088716 C255.415661,38.0010119 254.91315,38.9917771 253.90813,39.7811673 C252.903109,40.5705575 251.602963,40.9652526 250.007692,40.9652526 C248.476232,40.9652526 247.192038,40.5786125 246.155112,39.8053323 C245.118186,39.0320521 244.200905,37.9687919 243.40327,36.6155516 C243.211837,36.2933515 243.020405,36.0275364 242.828972,35.8181064 C242.63754,35.6086764 242.46206,35.4878513 242.302533,35.4556313 C241.951573,35.3911913 241.600613,35.4959063 241.249654,35.7697764 C240.898694,36.0436465 240.723214,36.3577915 240.723214,36.7122116 C240.723214,36.8733116 240.834883,37.1471817 241.058221,37.5338218 C242.015384,39.2737022 243.203861,40.6752725 244.623652,41.7385327 C246.043443,42.801793 247.838123,43.3334231 250.007692,43.3334231 Z" id="jeugdfonds"></path>
                    <path d="M192.261742,68.6558863 L193.270577,66.185789 L198.835439,66.185789 L199.844274,68.6558863 L202.187374,68.6558863 L197.257101,56.9729934 L194.995359,56.9729934 L190,68.6558863 L192.261742,68.6558863 Z M198.054406,64.2664566 L194.05161,64.2664566 L196.06928,59.3596416 L198.054406,64.2664566 Z M210.66484,68.6558863 L210.66484,66.6364149 L205.750839,66.6364149 L205.750839,56.9729934 L203.570454,56.9729934 L203.570454,68.6558863 L210.66484,68.6558863 Z M214.358477,68.6558863 L214.358477,60.2775831 L217.921941,67.4542174 L219.321293,67.4542174 L222.868486,60.2775831 L222.868486,68.6558863 L224.869884,68.6558863 L224.869884,56.9729934 L222.38034,56.9729934 L218.637889,64.5001144 L214.862894,56.9729934 L212.37335,56.9729934 L212.37335,68.6558863 L214.358477,68.6558863 Z M236.211138,68.6558863 L236.211138,66.7031742 L229.848971,66.7031742 L229.848971,63.7657612 L235.381291,63.7657612 L235.381291,61.8130491 L229.848971,61.8130491 L229.848971,58.9257055 L236.01588,58.9257055 L236.01588,56.9729934 L227.668586,56.9729934 L227.668586,68.6558863 L236.211138,68.6558863 Z M245.518452,68.6558863 L245.518452,66.6364149 L240.604451,66.6364149 L240.604451,56.9729934 L238.424066,56.9729934 L238.424066,68.6558863 L245.518452,68.6558863 Z M252.401308,68.8227848 C253.529468,68.8227848 254.557286,68.5557473 255.484763,68.0216722 C256.41224,67.487597 257.141747,66.7615887 257.673283,65.8436471 C258.20482,64.9257055 258.470588,63.9104065 258.470588,62.79775 C258.470588,61.6850936 258.20482,60.6725762 257.673283,59.7601979 C257.141747,58.8478196 256.41224,58.1301562 255.484763,57.6072076 C254.557286,57.0842591 253.529468,56.8227848 252.401308,56.8227848 C251.273149,56.8227848 250.245331,57.0842591 249.317854,57.6072076 C248.390377,58.1301562 247.66087,58.8478196 247.129333,59.7601979 C246.597797,60.6725762 246.332029,61.6850936 246.332029,62.79775 C246.332029,63.9104065 246.597797,64.9257055 247.129333,65.8436471 C247.66087,66.7615887 248.390377,67.487597 249.317854,68.0216722 C250.245331,68.5557473 251.273149,68.8227848 252.401308,68.8227848 Z M252.433851,66.8033133 C251.7396,66.8033133 251.096874,66.6252883 250.505675,66.2692382 C249.914477,65.9131881 249.442602,65.4291826 249.090053,64.8172215 C248.737503,64.2052605 248.561228,63.5321033 248.561228,62.79775 C248.561228,62.0633968 248.734791,61.3930212 249.081917,60.7866235 C249.429043,60.1802257 249.900917,59.7017834 250.49754,59.3512966 C251.094162,59.0008098 251.7396,58.8255665 252.433851,58.8255665 C253.117256,58.8255665 253.751845,59.0008098 254.33762,59.3512966 C254.923395,59.7017834 255.387134,60.1802257 255.728836,60.7866235 C256.070538,61.3930212 256.241389,62.0633968 256.241389,62.79775 C256.241389,63.5321033 256.070538,64.2052605 255.728836,64.8172215 C255.387134,65.4291826 254.923395,65.9131881 254.33762,66.2692382 C253.751845,66.6252883 253.117256,66.8033133 252.433851,66.8033133 Z" id="ALMELO"></path>
                </g>
            </g>
        </g>
    </g>
</svg>